{
    "usage": "Usage: $f%s",
    "master_command_addbot": "Add a new bot",
    "master_command_delbot": "Remove a bot",
    "master_command_mybots": "List all bots",
    "master_welcome": "Welcome to use Topicgram!\nOur notification channel @TopicgramUpdates\n\nNow, you can use /addbot to add a new bot.",
    "master_addbot": "/addbot <bot_token>",
    "master_delbot": "/delbot <bot_token>",
    "master_bot_add": "Bot successfully added.\n\nAdd this bot to your group as an administrator, then use /setgroup to set forward group.",
    "master_bot_removed": "Bot successfully removed.",
    "master_own_bots": "You own these bots",
    "admin_command_ban": "Ban user",
    "admin_command_unban": "Unban user",
    "admin_command_terminate": "Terminate current session",
    "admin_command_setgroup": "Set this group as forward group",
    "error": "An error has occurred, please try again",
    "error_bot_exists": "Bot exists",
    "error_bot_not_exists": "Bot not exists",
    "error_token": "Invalid Bot Token",
    "error_not_topic": "Please enable topic mode in this group",
    "error_no_permission": "Permission denied",
    "error_check_permission": "Failed to check bot permission, please try again",
    "error_not_administrator": "Please add this bot as group administrator.\n\nPermission required:\n - $f%s\n - $f%s\n - $f%s",
    "error_unsupport_message": "Unsupport message",
    "error_unknwon_command": "Unknown command",
    "error_no_forward_group": "This bot cannot currently forward messages because it does not have a forwarding group set up",
    "error_database": "Failed to connect database, please try again",
    "error_create_topic": "Failed to create topic, please try again",
    "error_create_topic_admin": "Failed to create topic",
    "error_not_edit": "This message can not be edited.",
    "permission_delete_message": "delete messages",
    "permission_pin_message": "pin messages",
    "permission_manage_topics": "manage topics",
    "action_blocked": "User $f%d has been blocked the bot",
    "action_success": "Success",
    "userinfo_sender": "Sender",
    "userinfo_uid": "User ID",
    "userinfo_name": "Full Name",
    "userinfo_username": "User Name",
    "user_welcome": "Hello!\n\nYou can contact us using this bot.",
    "user_copyright": "This bot was made using @TopicgramBot",
    "user_spam":"You have been banned by the spam system\nreason:",
    "user_banned": "You have been banned forever.",
    "admin_ban": "User $f%d has been banned forever.",
    "admin_ban_topic": "User $f%d has been banned forever, use /terminate to close the session",
    "admin_unban": "User $f%d has been unbanned.",
    "admin_usage_ban": "/ban <user_id>",
    "admin_usage_unban": "/unban <user_id>",
    "admin_usage_terminate": "/terminate <user_id>",
    "admin_terminated": "The administrator terminated the session.\nYou can send a new message to create a new session."
}